37.3067 3.41562 -319.4
34.25 3.125 -293.6
37.925 3.475 -324.6
42.075 3.875 -359.6
46.675 4.275 -398.6
51.55 4.725 -439.6
79.7662 7.29294 -677.826
88.5192 8.12242 -751.826
98.7031 9.02666 -837.826
109.356 10.0052 -927.826
120.122 8.94287 -1028.83
161.479 14.774 -1368
176.533 16.1185 -1495
193.225 17.6496 -1636
227.075 20.7268 -1922
300.742 27.4326 -2544
