23.3695 26.0272 -540.4
25.0034 25.2571 -601.4
26.2023 29.1837 -601.4
29.49 32.8281 -672.4
23.6328 26.3247 -545.6
25.8715 28.7906 -606.6
28.3262 27.032 -606.6
26.4263 29.4519 -606.6
25.3228 32.7816 -606.6
29.7151 33.1036 -677.6
33.1485 36.9201 -751.6
49.1384 54.7605 -1098.3
54.1116 65.175 -1269.17
57.3111 63.8517 -1274.83
63.3392 70.5869 -1405.83
70.2865 78.312 -1555.83
78.0293 86.974 -1723.83
102.438 121.394 -2364
107.574 119.928 -2364
109.11 134.094 -2596
118.282 131.871 -2596
118.694 119.211 -2853
117.259 146.94 -2853
140.043 97.0084 -2604
118.963 119.784 -2861
