10.5254 32.3386 -606.6
11.7356 36.0346 -677.6
13.0008 39.8986 -751.6
14.4528 44.3897 -837.6
15.993 49.0937 -927.6
11.645 35.7697 -672.4
12.8964 39.6372 -746.4
14.352 44.1084 -832.4
18.8738 58.0067 -1098.3
21.0138 64.5928 -1224.3
23.1971 71.3663 -1354.3
26.6634 81.8871 -1555.83
29.523 90.6729 -1723.83
32.699 100.497 -1911.83
36.3135 111.492 -2122.83
26.5697 81.6073 -1550.17
29.4091 90.3737 -1718.17
32.6141 100.188 -1906.17
36.2085 111.208 -2117.17
48.7069 149.629 -2853
