-2.34385 35.8009 398.6
-2.57751 39.3707 439.6
-2.32525 35.3584 393.4
-2.56805 38.895 434.4
-2.85855 43.1339 483.4
-3.17213 48.0796 540.4
-5.35466 81.5919 927.826
-5.9294 90.3346 1028.83
-6.58012 100.356 1144.83
-7.32761 111.628 1274.83
-10.2702 157.075 1800
-11.2579 171.95 1972
-12.3229 188.374 2162
-14.2475 217.788 2502
-16.2436 248.85 2861
