-15.2001 -33.3675 -483.4
-15.379 -33.7871 -488.6
-17.3861 -38.3037 -545.6
-19.6379 -43.1639 -606.6
-34.6686 -76.2461 -1023.17
-38.8643 -85.4718 -1139.17
-43.5602 -95.7895 -1269.17
-48.3016 -106.196 -1400.17
-68.1239 -149.885 -1950
-74.9994 -164.976 -2140
-100.498 -221.136 -2847
