-24.3284 26.9737 -672.4
-26.7426 29.6194 -746.4
-29.5521 32.7275 -832.4
-32.4987 35.9832 -922.4
-24.5126 27.1571 -677.6
-26.9121 29.8131 -751.6
-29.7199 32.9264 -837.6
-42.6292 47.2324 -1233.7
-46.9153 51.9179 -1363.7
-51.5992 57.1199 -1507.7
-58.4778 64.7355 -1718.17
-64.612 71.5061 -1906.17
-66.804 71.1525 -1906.17
-71.471 79.1428 -2117.17
-79.2138 87.6987 -2354.17
-101.512 122.616 -2839
