31.2311 -21.7163 -1023.4
28.3223 -19.6859 -927.6
31.4008 -21.8121 -1028.6
34.9328 -24.2536 -1144.6
50.6457 -35.4468 -1669.7
56.3564 -39.1839 -1850.7
71.8367 -49.9305 -2359.83
79.878 -55.5149 -2623.83
71.6831 -49.7978 -2354.17
79.6911 -55.4016 -2618.17
