-34.8707 -4.81196 288.4
-39.325 -6.175 288.4
-46.15 -7.275 319.4
-34.3801 -4.58522 265.6
-34.2816 -5.39185 265.6
-40.4691 -6.34913 293.6
-47.3036 -7.45327 324.6
-82.3148 -12.9362 483.174
-94.8909 -14.8774 540.174
-108.348 -17.0088 601.174
-162.975 -25.5733 848.586
-230.935 -36.1906 1156.5
-293.076 -45.9051 1438
