-34.175 3.625 -672.4
-38.075 4.05 -746.4
-42.6 4.525 -832.4
-47.325 5.025 -922.4
-34.453 3.65399 -677.6
-38.3402 4.08446 -751.6
-63.51 7.225 -1233.7
-63.7 6.775 -1233.7
-70.525 7.475 -1363.7
-78.125 8.3 -1507.7
-63.2104 6.7139 -1224.3
-70.0318 7.44819 -1354.3
-77.6076 8.2406 -1498.3
-80.3271 8.54602 -1550.17
-89.1879 9.4938 -1718.17
-99.0481 10.5239 -1906.17
-110.123 11.6857 -2117.17
